Intro to the tidyverse
…
- ggplot (NEXT WEEK!)

---
class: inverse, left, top
# The Tibble

Take a look at the Gapminder dataset.

```r
gapminder
```

```
## # A tibble: 1,704 x 6
##    country     continent  year lifeExp      pop gdpPercap
##    <fct>       <fct>     <int>   <dbl>    <int>     <dbl>
##  1 Afghanistan Asia       1952    28.8  8425333      779.
##  2 Afghanistan Asia       1957    30.3  9240934      821.
##  3 Afghanistan Asia       1962    32.0 10267083      853.
##  4 Afghanistan Asia       1967    34.0 11537966      836.
##  5 Afghanistan Asia       1972    36.1 13079460      740.
##  6 Afghanistan Asia       1977    38.4 14880372      786.
##  7 Afghanistan Asia       1982    39.9 12881816      978.
##  8 Afghanistan Asia       1987    40.8 13867957      852.
##  9 Afghanistan Asia       1992    41.7 16317921      649.
## 10 Afghanistan Asia       1997    41.8 22227415      635.
## # ... with 1,694 more rows
```
…
```
##   Sepal.Length Sepal.Width Petal.Length Petal.Width Species
## 1          5.1         3.5          1.4         0.2  setosa
## 2          4.9         3.0          1.4         0.2  setosa
## 3          4.7         3.2          1.3         0.2  setosa
## 4          4.6         3.1          1.5         0.2  setosa
```

```r
as_tibble(iris)
```

```
## # A tibble: 150 x 5
##    Sepal.Length Sepal.Width Petal.Length Petal.Width Species
##           <dbl>       <dbl>        <dbl>       <dbl> <fct>  
##  1          5.1         3.5          1.4         0.2 setosa 
##  2          4.9         3            1.4         0.2 setosa 
##  3          4.7         3.2          1.3         0.2 setosa 
##  4          4.6         3.1          1.5         0.2 setosa 
##  5          5           3.6          1.4         0.2 setosa 
##  6          5.4         3.9          1.7         0.4 setosa 
##  7          4.6         3.4          1.4         0.3 setosa 
##  8          5           3.4          1.5         0.2 setosa 
##  9          4.4         2.9          1.4         0.2 setosa 
## 10          4.9         3.1          1.5         0.1 setosa 
## # ... with 140 more rows
```
…
Example, unite several columns into one: 

```r
unite(gapminder,
      col = "Location",
      continent:country,
      sep = ", ",
      remove = TRUE)
```

```
## # A tibble: 1,704 x 5
##    Location           year lifeExp      pop gdpPercap
##    <chr>             <int>   <dbl>    <int>     <dbl>
##  1 Asia, Afghanistan  1952    28.8  8425333      779.
##  2 Asia, Afghanistan  1957    30.3  9240934      821.
##  3 Asia, Afghanistan  1962    32.0 10267083      853.
##  4 Asia, Afghanistan  1967    34.0 11537966      836.
##  5 Asia, Afghanistan  1972    36.1 13079460      740.
##  6 Asia, Afghanistan  1977    38.4 14880372      786.
##  7 Asia, Afghanistan  1982    39.9 12881816      978.
##  8 Asia, Afghanistan  1987    40.8 13867957      852.
##  9 Asia, Afghanistan  1992    41.7 16317921      649.
## 10 Asia, Afghanistan  1997    41.8 22227415      635.
## # ... with 1,694 more rows
```
…
- Join data sets

---
class: inverse, left, top
# Dplyr: Data manipulation

Example: filter by life expectancy:

```r
filter(gapminder, lifeExp >80)
```

```
## # A tibble: 21 x 6
##    country          continent  year lifeExp      pop gdpPercap
##    <fct>            <fct>     <int>   <dbl>    <int>     <dbl>
##  1 Australia        Oceania    2002    80.4 19546792    30688.
##  2 Australia        Oceania    2007    81.2 20434176    34435.
##  3 Canada           Americas   2007    80.7 33390141    36319.
##  4 France           Europe     2007    80.7 61083916    30470.
##  5 Hong Kong, China Asia       2002    81.5  6762476    30209.
##  6 Hong Kong, China Asia       2007    82.2  6980412    39725.
##  7 Iceland          Europe     2002    80.5   288030    31163.
##  8 Iceland          Europe     2007    81.8   301931    36181.
##  9 Israel           Asia       2007    80.7  6426679    25523.
## 10 Italy            Europe     2002    80.2 57926999    27968.
## # ... with 11 more rows
```

---
class: inverse, left, top
# Dplyr: Data manipulation

Example: select certain columns:

```r
select(gapminder, country, year, gdpPercap)
```

```
## # A tibble: 1,704 x 3
##    country      year gdpPercap
##    <fct>       <int>     <dbl>
##  1 Afghanistan  1952      779.
##  2 Afghanistan  1957      821.
##  3 Afghanistan  1962      853.
##  4 Afghanistan  1967      836.
##  5 Afghanistan  1972      740.
##  6 Afghanistan  1977      786.
##  7 Afghanistan  1982      978.
##  8 Afghanistan  1987      852.
##  9 Afghanistan  1992      649.
## 10 Afghanistan  1997      635.
## # ... with 1,694 more rows
```

---
class: inverse, left, top
# Dplyr: Data manipulation
The mutate function is very useful- it can do computations, and adds a new column.

Example: mutate- multiply life expectancy by GDP:

```r
mutate(gapminder, l_g=lifeExp*gdpPercap)
```

```
## # A tibble: 1,704 x 7
##    country     continent  year lifeExp      pop gdpPercap    l_g
##    <fct>       <fct>     <int>   <dbl>    <int>     <dbl>  <dbl>
##  1 Afghanistan Asia       1952    28.8  8425333      779. 22449.
##  2 Afghanistan Asia       1957    30.3  9240934      821. 24898.
##  3 Afghanistan Asia       1962    32.0 10267083      853. 27297.
##  4 Afghanistan Asia       1967    34.0 11537966      836. 28447.
##  5 Afghanistan Asia       1972    36.1 13079460      740. 26704.
##  6 Afghanistan Asia       1977    38.4 14880372      786. 30217.
##  7 Afghanistan Asia       1982    39.9 12881816      978. 38978.
##  8 Afghanistan Asia       1987    40.8 13867957      852. 34797.
##  9 Afghanistan Asia       1992    41.7 16317921      649. 27061.
## 10 Afghanistan Asia       1997    41.8 22227415      635. 26534.
## # ... with 1,694 more rows
```

---
class: inverse, left, top
# Dplyr: Data manipulation

Example: group data and summarise by group:

```r
x <- group_by(gapminder, country)
summarise(x, avg = mean(lifeExp))
```

```
## # A tibble: 142 x 2
##    country       avg
##    <fct>       <dbl>
##  1 Afghanistan  37.5
##  2 Albania      68.4
##  3 Algeria      59.0
##  4 Angola       37.9
##  5 Argentina    69.1
##  6 Australia    74.7
##  7 Austria      73.1
##  8 Bahrain      65.6
##  9 Bangladesh   49.8
## 10 Belgium      73.6
## # ... with 132 more rows
```

---
class: inverse, left, top
# The Pipe: %>% 
All this means is: do task one, and then do task two.

Example: group data and summarise:

```r
group_by(gapminder, country) %>% 
  summarise(avg = mean(lifeExp))
```

```
## # A tibble: 142 x 2
##    country       avg
##    <fct>       <dbl>
##  1 Afghanistan  37.5
##  2 Albania      68.4
##  3 Algeria      59.0
##  4 Angola       37.9
##  5 Argentina    69.1
##  6 Australia    74.7
##  7 Austria      73.1
##  8 Bahrain      65.6
##  9 Bangladesh   49.8
## 10 Belgium      73.6
## # ... with 132 more rows
```

---
class: inverse, left, top
## The Pipe: %>% 

Example: group data, summarise, and filter:

```r
group_by(gapminder, country, continent) %>% 
  summarise(avg_LifeExp = mean(lifeExp)) %>%
  filter(continent ==  'Africa')
```

```
## # A tibble: 52 x 3
## # Groups:   country [52]
##    country                  continent avg_LifeExp
##    <fct>                    <fct>           <dbl>
##  1 Algeria                  Africa           59.0
##  2 Angola                   Africa           37.9
##  3 Benin                    Africa           48.8
##  4 Botswana                 Africa           54.6
##  5 Burkina Faso             Africa           44.7
##  6 Burundi                  Africa           44.8
##  7 Cameroon                 Africa           48.1
##  8 Central African Republic Africa           43.9
##  9 Chad                     Africa           46.8
## 10 Comoros                  Africa           52.4
## # ... with 42 more rows
```
…
- Join and split strings

- Order strings

---
class: inverse, left, top
# Stringr
## Dealing with characters

```r
mutate(gapminder, "string" = str_c(country, continent, sep= ", "))
```

```
## # A tibble: 1,704 x 7
##    country     continent  year lifeExp      pop gdpPercap string           
##    <fct>       <fct>     <int>   <dbl>    <int>     <dbl> <chr>            
##  1 Afghanistan Asia       1952    28.8  8425333      779. Afghanistan, Asia
##  2 Afghanistan Asia       1957    30.3  9240934      821. Afghanistan, Asia
##  3 Afghanistan Asia       1962    32.0 10267083      853. Afghanistan, Asia
##  4 Afghanistan Asia       1967    34.0 11537966      836. Afghanistan, Asia
##  5 Afghanistan Asia       1972    36.1 13079460      740. Afghanistan, Asia
##  6 Afghanistan Asia       1977    38.4 14880372      786. Afghanistan, Asia
##  7 Afghanistan Asia       1982    39.9 12881816      978. Afghanistan, Asia
##  8 Afghanistan Asia       1987    40.8 13867957      852. Afghanistan, Asia
##  9 Afghanistan Asia       1992    41.7 16317921      649. Afghanistan, Asia
## 10 Afghanistan Asia       1997    41.8 22227415      635. Afghanistan, Asia
## # ... with 1,694 more rows
```
…
- dealing with time zones

- time math: periods, durations, intervals

---
class: inverse, left, top
# Lubridate
## Dealing with time

```r
mutate(gapminder, leap= leap_year(year))
```

```
## # A tibble: 1,704 x 7
##    country     continent  year lifeExp      pop gdpPercap leap 
##    <fct>       <fct>     <int>   <dbl>    <int>     <dbl> <lgl>
##  1 Afghanistan Asia       1952    28.8  8425333      779. TRUE 
##  2 Afghanistan Asia       1957    30.3  9240934      821. FALSE
##  3 Afghanistan Asia       1962    32.0 10267083      853. FALSE
##  4 Afghanistan Asia       1967    34.0 11537966      836. FALSE
##  5 Afghanistan Asia       1972    36.1 13079460      740. TRUE 
##  6 Afghanistan Asia       1977    38.4 14880372      786. FALSE
##  7 Afghanistan Asia       1982    39.9 12881816      978. FALSE
##  8 Afghanistan Asia       1987    40.8 13867957      852. FALSE
##  9 Afghanistan Asia       1992    41.7 16317921      649. TRUE 
## 10 Afghanistan Asia       1997    41.8 22227415      635. FALSE
## # ... with 1,694 more rows
```

---
class: inverse, left, top
# Lubridate
## Dealing with time

```r
mutate(gapminder, time=years(year))
```

```
## # A tibble: 1,704 x 7
##    country   continent  year lifeExp     pop gdpPercap time                
##    <fct>     <fct>     <int>   <dbl>   <int>     <dbl> <Period>            
##  1 Afghanis~ Asia       1952    28.8  8.43e6      779. 1952y 0m 0d 0H 0M 0S
##  2 Afghanis~ Asia       1957    30.3  9.24e6      821. 1957y 0m 0d 0H 0M 0S
##  3 Afghanis~ Asia       1962    32.0  1.03e7      853. 1962y 0m 0d 0H 0M 0S
##  4 Afghanis~ Asia       1967    34.0  1.15e7      836. 1967y 0m 0d 0H 0M 0S
##  5 Afghanis~ Asia       1972    36.1  1.31e7      740. 1972y 0m 0d 0H 0M 0S
##  6 Afghanis~ Asia       1977    38.4  1.49e7      786. 1977y 0m 0d 0H 0M 0S
##  7 Afghanis~ Asia       1982    39.9  1.29e7      978. 1982y 0m 0d 0H 0M 0S
##  8 Afghanis~ Asia       1987    40.8  1.39e7      852. 1987y 0m 0d 0H 0M 0S
##  9 Afghanis~ Asia       1992    41.7  1.63e7      649. 1992y 0m 0d 0H 0M 0S
## 10 Afghanis~ Asia       1997    41.8  2.22e7      635. 1997y 0m 0d 0H 0M 0S
## # ... with 1,694 more rows
```

---
class: inverse, left, top
# Lubridate
## Dealing with time

```r
mutate(economics, year=year(date))
```

```
## # A tibble: 574 x 7
##    date         pce    pop psavert uempmed unemploy  year
##    <date>     <dbl>  <int>   <dbl>   <dbl>    <int> <dbl>
##  1 1967-07-01  507. 198712    12.5     4.5     2944  1967
##  2 1967-08-01  510. 198911    12.5     4.7     2945  1967
##  3 1967-09-01  516. 199113    11.7     4.6     2958  1967
##  4 1967-10-01  513. 199311    12.5     4.9     3143  1967
##  5 1967-11-01  518. 199498    12.5     4.7     3066  1967
##  6 1967-12-01  526. 199657    12.1     4.8     3018  1967
##  7 1968-01-01  532. 199808    11.7     5.1     2878  1968
##  8 1968-02-01  534. 199920    12.2     4.5     3001  1968
##  9 1968-03-01  545. 200056    11.6     4.1     2877  1968
## 10 1968-04-01  545. 200208    12.2     4.6     2709  1968
## # ... with 564 more rows
```
…
---
class: inverse, left, top
# Broom: Tidy stat results

`augment` add stidy stats to the original data

```r
augment(fit)
```

```
## # A tibble: 1,704 x 10
##    lifeExp gdpPercap    pop .fitted .se.fit .resid    .hat .sigma .cooksd
##      <dbl>     <dbl>  <int>   <dbl>   <dbl>  <dbl>   <dbl>  <dbl>   <dbl>
##  1    28.8      779. 8.43e6    54.3   0.307  -25.5 8.65e-4   10.4 1.72e-3
##  2    30.3      821. 9.24e6    54.4   0.306  -24.0 8.59e-4   10.4 1.52e-3
##  3    32.0      853. 1.03e7    54.4   0.305  -22.4 8.55e-4   10.4 1.31e-3
##  4    34.0      836. 1.15e7    54.4   0.305  -20.4 8.53e-4   10.4 1.09e-3
##  5    36.1      740. 1.31e7    54.3   0.306  -18.3 8.58e-4   10.4 8.75e-4
##  6    38.4      786. 1.49e7    54.4   0.305  -16.0 8.51e-4   10.4 6.63e-4
##  7    39.9      978. 1.29e7    54.5   0.303  -14.7 8.40e-4   10.4 5.53e-4
##  8    40.8      852. 1.39e7    54.4   0.304  -13.6 8.47e-4   10.4 4.81e-4
##  9    41.7      649. 1.63e7    54.3   0.306  -12.6 8.59e-4   10.4 4.20e-4
## 10    41.8      635. 2.22e7    54.4   0.305  -12.6 8.53e-4   10.4 4.14e-4
## # ... with 1,694 more rows, and 1 more variable: .std.resid <dbl>
```
…
